{
    "projects": [
        {
            "id": 1,
            "name": "hard-rox.gitlab.io",
            "shortDetails": "This is an angular web app for my blog & portfolio. Built with Angular 8.  Here I used GitLab Pages with GitLab CI/CD pipeline to deploy & markdown file to present articles & project details.",
            "demoImageUrls": [
                "https://i.imgur.com/DmOWBgT.png",
                "https://i.imgur.com/jEWrhN4.png",
                "https://i.imgur.com/1pJn15q.png",
                "https://i.imgur.com/j6MkzBr.png",
                "https://i.imgur.com/aVIfpaX.png"
            ],
            "type": "Web App",
            "tags": [
                "Angular",
                "Angular 8",
                "Angular CLI",
                "ngx-markdown"
            ],
            "markdownFileName": "hard-rox.gitlab.io-README.md"
        },
        {
            "id": 2,
            "name": "Microsoft Technical Community BD Event Management",
            "shortDetails": "This is ASP.NET Core web app for Microsoft Technical Community BD. This app offers the features of Managing Contributors, Speakers, Events, Registrations of audience for events hosted by Community.",
            "demoImageUrls": [
                "https://i.imgur.com/OWxf0nD.png",
                "https://i.imgur.com/hd9rZO7.png",
                "https://i.imgur.com/eaZusu4.png",
                "https://i.imgur.com/eaZusu4.png",
                "https://i.imgur.com/NhKtlf7.png",
                "https://i.imgur.com/1oWkOWN.png"
            ],
            "type": "Web App",
            "tags": [
                "ASP.NET Core",
                "SQL Server",
                "Entity Framework Core",
                "ASP.NET Core Identity",
                "CodeFirst"
            ],
            "markdownFileName": "mstcbd-blog-README.md"
        }
    ]
}